*** Life<FredkinCell> 10x10 ***

Generation = 0, Population = 7.
----0-----
----------
----------
-----00---
-0--------
----------
---------0
----0-----
----------
-------0--

Generation = 1, Population = 25.
---0-0----
----0-----
-----00---
-0--0110--
0-0--00---
-0-------0
----0---0-
---0-0---0
----0--0--
------0-0-

Generation = 2, Population = 27.
--0-0-0---
-----00---
-0--0-----
---01--10-
---0-----0
----000---
-0-----0-0
--0---00--
---------0
----00-0-0

Generation = 3, Population = 49.
-0---010--
-00-01-0--
0-0-1-000-
-00--1121-
--010000--
-0--1-1---
0---0001--
---0-01-0-
--0-000-01
---011---1

Generation = 4, Population = 24.
01------0-
----------
----2----0
-11-1----0
-0--11----
-------0--
-----1-2--
0----1201-
-0--------
---12----2

Generation = 5, Population = 55.
120----0-0
00--0---00
-00030--01
0-2-----11
01-1-200-0
-0--1-110-
0---020---
----0--120
--00000001
-00231--0-

Generation = 6, Population = 55.
-3100-1-01
-10-1----1
0-1-410012
1-301-1--2
--0-131--1
010-2-221-
---01--2-0
0-0--12-3-
---1-1-1--
01134---1-

Generation = 7, Population = 44.
1-2-----1-
--10---00-
10-05-1--3
2-4-2-----
---12-2--2
1--0-0-320
-001--03--
---0--3---
-002020-0-
1--45----2

Generation = 8, Population = 20.
--3-----21
-------1--
-1--------
31---1----
-----3---3
----2-----
-1-21----0
--0-----3-
-1--1-----
------0---

Generation = 9, Population = 40.
-3-0----32
-11---0--1
-21--1-0--
4-4-221--2
01---42-0-
-1--3-----
0-03-2----
-0-----1--
0--2-20-0-
-1--51-0--

Generation = 10, Population = 37.
143-0-104-
02-------2
--20-2--1-
5-5-3-----
----2-----
12---02-2-
--141-03--
0---------
-10-1-1--1
--1-6-0---

*** Life<FredkinCell> 10x10 ***

Generation = 0, Population = 10.
----------
--0------0
-0---00---
-----0----
-------0--
---0------
----------
----------
----------
-0---0----

Generation = 1, Population = 29.
--0------0
---0-00-0-
0---0-10-0
-0--01-0--
---0-00-0-
--0-0--0--
---0------
----------
-0---0----
0-0-0-0---

Generation = 2, Population = 24.
-0---00---
0---01-0-0
----1---0-
--0----1-0
-0----1--0
-0--------
-------0--
-0-0-0----
----------
-0---0-0--

Generation = 3, Population = 40.
--0---1--0
---0--0-0-
0-002--0-0
---00---01
01---0--01
010---00-0
---0-00-0-
0-----00--
---0---0--
0-0-0---0-

Generation = 4, Population = 31.
-0---020--
0-01-110-0
--1--0---1
-0-------2
---0-----2
-21--0-1-1
-0---11---
-0--------
-------1--
---0-0---0

Generation = 5, Population = 50.
---00-3-00
-0-2-22--1
0-2-21-00-
0--0-1--0-
----00-00-
0-2-010--2
0---0-2--0
010--000--
-0-0-00-00
--0---000-

Generation = 6, Population = 39.
-00-104-1-
--03----02
10--3211--
10----01-2
--0--111--
1---12---3
---01---01
-21----1--
-1----1--1
----------

Generation = 7, Population = 38.
01-02-5-2-
00-40----3
----4-2---
----0112--
---0--2-0-
-22----1-4
00-1----1-
0-2-0-----
02---0--0-
-0----0--0

Generation = 8, Population = 17.
----------
----12----
10---23--1
-------3--
-1----3---
--30------
----------
---0------
-------1--
-10----0--

Generation = 9, Population = 41.
----20----
00-42----3
212---4-0-
1----11-02
0--0-1----
--411-0---
--0-------
--2-0--1--
-200--120-
0210--010-

Generation = 10, Population = 48.
01---15--0
--05--2---
323-4-5-11
--000----3
11-1023-02
12-222-1--
-0----20--
---0-0-2--
-----0---1
132-00-2-0

*** Life<FredkinCell> 10x10 ***

Generation = 0, Population = 10.
----------
0---------
-----0----
----------
0---------
---0-0-0--
--00------
-------00-
----------
----------

Generation = 1, Population = 28.
0---------
-0---0----
0---0-0---
0----0----
-0-0-0-0--
0--1----0-
-01-00--0-
--00--0110
-------00-
----------

Generation = 2, Population = 28.
-----0----
0-0-------
1--0---0--
1--0-1-0--
0--1-1----
-0-2----10
-1--11----
---1--12-1
--00------
-------00-

Generation = 3, Population = 55.
0-0-0-0---
1----0-0--
-0-100010-
-00--2-10-
1-0--20000
-1-3---021
021022-00-
-0-2--23--
-01-0-0-00
--00--0110

Generation = 4, Population = 32.
1----0----
2-0001-1--
-102-----0
-------21-
--1-0-----
02-4---1--
1----301--
---30---11
0---------
---1-0--2-

Generation = 5, Population = 48.
2000-100--
30-1----00
-21--0----
-0-00-032-
1--1-2--0-
-30--0-22-
2----4---0
--041-2-22
-0--00---0
0-0---01-0

Generation = 6, Population = 50.
-1---2-1-0
-1-20-0-11
-322---1-0
-10-1-1--0
-0-203-0-0
041-0--3--
---0-5-101
0-1-----33
--1--100--
-0-10-12-1

Generation = 7, Population = 52.
2200--0-01
3-0-11--22
143-0-0-0-
12--22-32-
---3-401-1
152-100---
-21-2---1-
--2---23--
0-2--21---
0-0210----

Generation = 8, Population = 28.
--11------
---2-2013-
25-----1--
----------
-----51-0-
26-4-1--21
--2-3----1
0--41--4--
1---------
1---------

Generation = 9, Population = 54.
-22-02010-
31-3-3-242
3632-0-2--
12---2132-
10-30-2-1-
372-12-3--
----4--1-2
10-5-02-33
-0-00--0--
20--------

Generation = 10, Population = 55.
--3113-2--
-2-41-0353
4-----0-00
23----24-0
2114--3-21
-8342304-1
--2-55-213
2--6-13-4-
1---1----0
3-021--2--

*** Life<FredkinCell> 10x10 ***

Generation = 0, Population = 11.
---0------
0---------
0-----0---
----0----0
---0------
--0-------
----------
------0---
---0------
0---------

Generation = 1, Population = 30.
0-0-0-----
10-0--0---
10--00-0-0
0----00-0-
---------0
-0--------
--0---0---
---0-0-0--
0-0-0-0---
-0-0------

Generation = 2, Population = 32.
10-0-00---
2-0-0----0
2-0-1---0-
1-----10-0
00---00---
0-----0--0
----------
0-0-0---0-
-0---0----
--0---0---

Generation = 3, Population = 43.
-10-0110-0
-0101-0---
--1-200--0
--0-0--10-
110-011---
1-----100-
--0-0-0-00
-0-----0-0
--0-----0-
---0---0--

Generation = 4, Population = 25.
1--0--21--
2---2-----
---03-----
1----0121-
-------0--
2-----2---
0-----1---
0-0-0----1
-------0--
----0-0---

Generation = 5, Population = 49.
210--1320-
30-03000--
--11--000-
-0-0-1-320
-----111--
30---03---
-00-0020-0
1----0000-
0-0-----00
---0------

Generation = 6, Population = 48.
-21---4310
-----1-10-
2022-0----
1-01-2-431
1--0022--0
4----140-0
0-1-1---0-
2-----11-1
1----00--1
0---0---00

Generation = 7, Population = 47.
2320--5421
3--0320---
--3---0--0
-0-20-15--
-1-----1--
-0000-5101
-------0-0
-00-0--202
-0---1----
10-0--001-

Generation = 8, Population = 32.
---------2
4-1---1-0-
2--2----0-
11031---31
1-----2--0
4---1-6---
---0------
2-1---1---
---0-----1
2---0-1-20

Generation = 9, Population = 34.
2-2---5---
5----2--1-
--33--00--
2--42215--
--00-231-1
50----71-1
----------
---0-0-2-2
---------2
-0------3-

Generation = 10, Population = 43.
3--0---42-
60-03-1--0
-04--0----
-105-3-631
--1-0--2-2
61-0-----2
00-0-02---
--1------3
-0-0-1-0-3
2-0----0--

*** Life<FredkinCell> 10x10 ***

Generation = 0, Population = 5.
----------
----------
----0-----
--0-------
----------
------0-00
----------
----------
----------
----------

Generation = 1, Population = 17.
----------
----0-----
--00-0----
-0-00-----
--0---0-00
-----0--11
------0-00
----------
----------
----------

Generation = 2, Population = 19.
----0-----
--0-------
--1---0---
0---1-0-00
----0-----
--0-0-0022
----------
------0-00
----------
----------

Generation = 3, Population = 43.
--00-0----
-0100-0---
0020001000
-0002-1-11
0-00-0-0--
-0--1-1--3
--0-0--0--
-----0--11
------0-00
----------

Generation = 4, Population = 18.
----0-----
------1-00
1-------1-
0-----2---
----------
--0-20-02-
----1-----
--0-------
----------
------0-00

Generation = 5, Population = 44.
---0-00-00
0---00---1
20-----02-
10---0-01-
0-0-00000-
-0---1-133
---02--00-
-0-00-----
--0---0-00
-----0--11

Generation = 6, Population = 41.
0-0-0-1-1-
1---1--002
3-2-0-1---
2----12121
1---1---1-
---02212-4
--0---0---
0-0--000-1
----0-----
--0-0--0--

Generation = 7, Population = 56.
1---1--02-
-0-0-01113
----1020--
-00-223-32
20--20-020
0--13-233-
001-20-0--
--10-111--
0--01-0--0
-0--100-1-

Generation = 8, Population = 16.
----------
------2-24
--2-----2-
--1-3-----
----3-----
-0-24-3---
----------
------2-11
----------
--0-------

Generation = 9, Population = 39.
------1-20
--1--0---5
-0301-203-
-02-42--3-
-00--00---
0--3---3--
-0-02---00
-----1--22
--0---0-00
-0-0------

Generation = 10, Population = 35.
--0-----3-
--2---2126
3-----3---
2130--3-42
------1-2-
-0-4-2---4
----3-----
-010---133
----------
0-0-1-0-11

*** Life<FredkinCell> 10x10 ***

Generation = 0, Population = 7.
--------0-
----------
--------0-
----0--0--
----------
-------0--
----------
----------
--------0-
0---------

Generation = 1, Population = 17.
-------0-0
----------
----0----0
---0-00---
----0-----
------0-0-
-------0--
--------0-
0------0-0
-0------0-

Generation = 2, Population = 20.
------0---
----0--0--
------0-0-
--0--110-0
--------0-
----00-0-0
--------0-
0------0--
------0---
--0-------

Generation = 3, Population = 33.
----00----
---0-00---
--0-0-1---
-0-00221--
--0-0-00-0
---011----
0---00-0--
-0--------
0-0--0----
-0-0--0---

Generation = 4, Population = 18.
----1-----
-------0--
----1-----
0--1----00
----------
0--1-----0
--------0-
0---0--0--
----0-----
--0-0--0--

Generation = 5, Population = 35.
---0-0-0--
------0-0-
0----0-000
-00----111
--------0-
-00-1-----
---00-----
-0-0100---
0-00-0----
-0--100-0-

Generation = 6, Population = 38.
--0---0---
0--0-0--1-
--0-1-1---
-111-22---
----0---1-
011121--0-
----1-0---
--012110--
--1---0-0-
----211--0

Generation = 7, Population = 51.
00-----00-
-00-0-00-0
0-1---200-
0222-3-11-
0--0100020
1----2-010
00-0--1-0-
-0--3--1--
-02--0-0--
--003--0--

Generation = 8, Population = 23.
1---1---1-
0------1--
1---1-----
1-3-04-22-
----------
-----3----
--------1-
-------2--
0---0---0-
----4-110-

Generation = 9, Population = 44.
20-0-0---0
-0----0---
-0102---0-
2----5-331
0-0-1--02-
----2-0-1-
-----0---0
0---3-1-0-
-0-0100010
0--05-2--0

Generation = 10, Population = 38.
3-------1-
----0--110
----3-2-1-
3--20----2
1---2---3-
1-1133-02-
0---1-1-1-
----4-2210
0-------2-
--0--13--1

*** Life<FredkinCell> 10x10 ***

Generation = 0, Population = 8.
----------
----------
-000--0---
----------
-----0-0--
--------0-
----------
----0-----
----------
----------

Generation = 1, Population = 24.
----------
-000--0---
01-100-0--
-000-000--
----0-----
-----0---0
----0---0-
---0-0----
----0-----
----------

Generation = 2, Population = 24.
-000--0---
----------
12-2---10-
--------0-
-00--000-0
----0-0---
-----0-0--
--0---0-0-
----------
----0-----

Generation = 3, Population = 49.
01-100-0--
0-0---000-
23--0-02-0
0-00-0001-
0110-1110-
-000--10-0
--0-------
-0-0---0-0
--0-0-0-0-
---0-0----

Generation = 4, Population = 28.
-202-101--
--------1-
340--013--
----0-----
-2-1------
----0---0-
-010--0---
0-------0-
-----0-0--
----0---0-

Generation = 5, Population = 40.
03-3-2-2--
0--0---0-0
4-12-1-4--
0-0---00--
0---0---0-
--00-010-0
-1-1-0-0--
--00-00--0
0-------0-
---0-----0

Generation = 6, Population = 35.
-4-4---300
----0-0---
------1-00
--1-0-1---
12-----1--
0-1-0---0-
0------10-
0-1---1---
-00--000-0
0-0-0-----

Generation = 7, Population = 44.
0------4-1
-0----1---
--1--1--11
0-----2-10
-31-------
-0---0-010
-1--0--2-0
1020--2000
0110-111--
-01---00-0

Generation = 8, Population = 15.
----------
--------1-
4--20-14--
----------
--21-111--
0---------
----------
--3-------
-----2-2--
----------

Generation = 9, Population = 40.
--------0-
0--00-1--0
-4131-25--
0-1-00----
1332-2-20-
-010-010--
0-1-------
-0-0-0-0--
--1-0---0-
-----0-0--

Generation = 10, Population = 32.
0--40-04--
------2---
452421-611
1-------1-
-4--0-1-10
0---------
--21--0---
----0-----
---0-2-2-0
--1-------

*** Life<FredkinCell> 10x10 ***

Generation = 0, Population = 15.
---------0
-0--00----
------0---
-0--0-----
-0--------
----------
----------
00-0------
-0-0----0-
-----0----

Generation = 1, Population = 40.
-0--00--0-
0-0011---0
-------0--
0100-00---
010-0-----
-0--------
00-0------
1--10---0-
-1-100-0-0
-0-00-0-0-

Generation = 2, Population = 36.
------00--
-01-2-00--
-0--0---00
-211011---
---0--0---
0--00-----
---1----0-
2002------
-2-2-10---
01---0-0--

Generation = 3, Population = 52.
-00-00--0-
0-2-3----0
0-0-----11
0--21--000
01--0-10--
-001100-0-
-0-----0-0
31-3000-0-
0-03--1---
1-00010-0-

Generation = 4, Population = 31.
-1---100--
10--4---01
--1------2
---3-1--1-
---0-0--00
-1--2-----
------0---
--0----0--
-2-401-0--
2--1-----0

Generation = 5, Population = 51.
-20--2-1-0
2--0--0-1-
0---00--13
---4-21020
-1010110-1
0-0---0-00
-00-00----
----00-10-
--0--2-100
--02-1-00-

Generation = 6, Population = 45.
-31-0-0-0-
3----1-021
10-01-0-2-
02-5-32131
-212-2----
-----0101-
-1-----0-0
-1-3-1----
-21----2-1
-1-3-2----

Generation = 7, Population = 49.
-42--2-11-
40204--1-2
2---2-1--3
-31-1-3-42
------1--1
--012--12-
0201---10-
3-0---0---
0324--1---
220---00-0

Generation = 8, Population = 38.
--------2-
-13----223
30----2---
-42-2---53
-2-2-22-02
0--230----
---------0
---3-11-0-
14-502---1
-3---2-1--

Generation = 9, Population = 42.
-42-----3-
--40---334
411-20----
-535---1--
-313--3---
--0-----2-
0---0-0---
31040-2--0
2----3-2--
-403-3--00

Generation = 10, Population = 52.
05------4-
4151-10445
522-312-23
-6---3--5-
0---02--0-
0-1-3--1-0
1---1-1100
4----13-0-
34---41---
-5-4-40-11

*** Life<FredkinCell> 10x10 ***

Generation = 0, Population = 10.
-----00--0
-------0--
----------
----------
-------0-0
---0------
--0-------
--0-------
--0-------
----------

Generation = 1, Population = 23.
----011-0-
-----0--00
-------0--
-------0-0
---0--0---
----0--0-0
-01-------
-0-0------
-010------
--0-------

Generation = 2, Population = 30.
---0122-1-
-----1---1
-----001--
---0---1--
--0--0-0--
-00--0----
0-2-0--0-0
0--10-----
0-2-0-----
--1-------

Generation = 3, Population = 47.
--01-33---
---0--00--
---00---00
----0---0-
--1-01-10-
-110-10--0
10301-0---
-00210-0-0
1-3010----
00200-----

Generation = 4, Population = 25.
-01--4----
-------1-1
--0--00--1
--0-------
--20--02--
----------
2-----1---
0-----0---
2-4---00-0
--31------

Generation = 5, Population = 53.
01211-30-0
-0-------2
-010011-02
-0---0-1-0
-0-101130-
0-10---0--
30---020--
-00--0---0
3-5--0-1--
00-20-00-0

Generation = 6, Population = 48.
12--2-41-1
--0--1-1--
01---22113
0---0--2-1
-12--2--1-
1-2---0---
--301---00
0--21---0-
4-6--1020-
-133101---

Generation = 7, Population = 44.
23-1-45---
-0-0-2----
-2--------
1000-0-3-2
02-1------
-1--0--0-0
-0-1-020-1
100---0---
50701-1--0
-24--1--0-

Generation = 8, Population = 28.
3--2--61--
---1-3----
-------1-3
----------
-322-2----
--20---1-1
--3-113--2
---21-----
----2122--
-------0--

Generation = 9, Population = 43.
-3232-721-
0-02-----2
---0-22---
-000-0-3-2
043---13-0
--3------2
-04---4-03
---320-0-0
--------0-
----11-10-

Generation = 10, Population = 45.
-4343-8-2-
-0-3-3-1--
021---3---
--1--1-4-3
154---2---
11-0---1--
31--1--014
-0-4-10--1
---0---21-
---322-2-0

*** Life<FredkinCell> 10x10 ***

Generation = 0, Population = 8.
----------
------00--
----------
----------
----------
----------
----------
000-------
---0-0----
-0--------

Generation = 1, Population = 20.
------00--
-----0110-
------00--
----------
----------
----------
000-------
1-1--0----
0-----0---
0-00-0----

Generation = 2, Population = 22.
----------
----01--10
----------
------00--
----------
000-------
---0-0----
-0200-----
-0-0-0-0--
1-11------

Generation = 3, Population = 46.
----00--00
---0121121
----000000
-----0110-
000---00--
1-1--0----
0-010-0---
1---10-0--
-1--0---0-
-02-00-0--

Generation = 4, Population = 26.
----------
--01--22-2
----------
000-------
---0-0----
-0----00--
----------
2-2-210---
-2-0-0-0-0
1-3--1----

Generation = 5, Population = 50.
--00--00-0
-0121233--
00-0--00-0
1-1--0----
0------0--
1-10--110-
000-00-0--
-0-0321--0
0---0-0---
-0--0200-0

Generation = 6, Population = 31.
----------
--2----42-
---1-0----
-0--0----0
-0-0-0-1--
-0-1--2-10
-1-----1-0
2121-3--0-
-2--------
--31--11--

Generation = 7, Population = 48.
--0----00-
-0---23532
-0--0-0000
1110-0-10-
0--10-0---
1--20---2-
-----0---1
3--2--1---
-30--0000-
--4202220-

Generation = 8, Population = 27.
---0-0----
01---34---
----------
-2--------
---2-0----
201---21--
----------
----332-00
-4-0---1-0
-----333-0

Generation = 9, Population = 47.
000--1----
12221-55--
0----00---
1-10-0----
0------1--
3-2---322-
010-00-101
-1--4-301-
0-----020-
-0-204---1

Generation = 10, Population = 37.
-1-----0--
233-2--63-
----------
--21-1-1--
-0-2-0-2--
-0320-4---
-2---1-2-2
32-253--2-
-4-0---3--
---3-5-3--

*** Life<FredkinCell> 10x10 ***

Generation = 0, Population = 12.
--0----00-
---00-----
----------
-0--------
----------
-0-0------
----------
-----0----
--000-----
----------

Generation = 1, Population = 31.
-0--0-0110
---110-00-
-0-00-----
0-0-------
---0------
0---0-----
-0-0-0----
--00--0---
-01-1-----
--000-----

Generation = 2, Population = 30.
0-0-101221
--0--10---
--0----00-
-0-00-----
----------
---0------
--010-----
-0-----0--
012-200---
-----0----

Generation = 3, Population = 46.
--1-212--2
00-1---0-0
--1-00-110
0-0110-00-
-0--0-----
---1------
--1210-0--
-100-0--0-
123-311---
000--1----

Generation = 4, Population = 34.
0--03-3-23
11--1--10-
--2----22-
-0--------
---01--00-
-0-200-0--
----------
---------0
--404-200-
-1-0-2----

Generation = 5, Population = 49.
1-11---2-4
-2--21--1-
00-00-0--0
0--11-----
--0---0-10
0---11-1--
-0-210-0-0
--000-00--
--51513-1-
0-010--00-

Generation = 6, Population = 36.
-022-13-2-
13-1-2---0
----10-2--
1----0--0-
-0-----021
--0---02--
--1---0---
----1----0
126-----20
---2---1-0

Generation = 7, Population = 45.
------4---
2-022--1--
-0--21---0
-----1001-
-----0--32
--12-1---0
-022101--0
01-0-00--1
2-7-5---31
01--0-0-01

Generation = 8, Population = 28.
1-2231----
-31-----10
----------
-0---2---0
--001-----
----1-----
--3----00-
---1---0--
---16--0-2
-2-21-----

Generation = 9, Population = 42.
-0---24-24
-4--22-121
--2--1--2-
1--1--0-1-
--1------2
----21-20-
-0--1-1-10
---2--0--1
-272-131--
0----2-1-1

Generation = 10, Population = 49.
112---52--
25-23302--
0----2----
-00-1---2-
00--10003-
-012-203-0
0-3-2020--
---3-----2
-3----4-3-
--021302--

*** Life<FredkinCell> 10x10 ***

Generation = 0, Population = 6.
----0-----
----------
----------
---0------
---------0
--0-------
--0------0
----------
----------
----------

Generation = 1, Population = 19.
---0-0----
----0-----
---0------
--0-0----0
--00----0-
-010------
-010----0-
--0------0
----------
----------

Generation = 2, Population = 20.
--0-0-0---
---0------
----0----0
-01--0----
--1----0--
0--10-----
0---0--0--
--1-------
--0------0
----------

Generation = 3, Population = 45.
-0-0---0--
----0-0--0
-00-----0-
01-0--00-0
0-2-000-0-
10-2-0----
101-100-0-
00200--0-0
-010----0-
--0------0

Generation = 4, Population = 20.
0-------00
--0-------
--1-0----0
-------1--
----11-0--
2-----0---
2----110--
---1------
---------0
--1-------

Generation = 5, Population = 56.
-00----011
00100---0-
-02--0-00-
--1--00200
0--022010-
30--0010--
30-012210-
0-2-0000-0
--10----0-
-0-0-----0

Generation = 6, Population = 43.
----0-0122
1---1--0--
--3--10-1-
0-2--11--1
1--13-----
4-121--10-
4-11----1-
103--11---
0----00--0
0-110-----

Generation = 7, Population = 50.
0--01-12-3
-0102-0100
-040---0--
1-3----2--
-02---0100
-----012-0
-02--22-20
2---0--000
---0---00-
1-2-1-0--0

Generation = 8, Population = 16.
--------24
--2-------
---------0
---------1
-1-1------
----1-----
-131-----1
--3-------
----0----0
---1------

Generation = 9, Population = 32.
--0----235
-0-0----0-
--4-----11
-1-0----02
1--------0
--12-0---0
4242----2-
--4-0-----
--1--0--0-
--2------0

Generation = 10, Population = 32.
------1346
1---2----0
-0-0---02-
--3-0--2-3
--2--2----
------1--1
5----2-1--
2--1------
-0-0--00--
-031-0----

*** Life<FredkinCell> 10x10 ***

Generation = 0, Population = 11.
----------
----------
----------
----------
-0----0---
---0------
-00-------
-0------0-
-----0--0-
------00--

Generation = 1, Population = 24.
----------
----------
----------
-0----0---
0-00-0-0--
----0-0---
0-1-----0-
01---0-010
-0--0---10
------11--

Generation = 2, Population = 29.
----------
----------
-0----0---
---0------
-0110---0-
-----0--0-
10-0000-1-
-------1--
-100--00--
-0--0022-0

Generation = 3, Population = 46.
----------
-0----0---
0-00-0-0--
---1--0-0-
01-21--010
0-0-01-0-0
21-1-11020
0-0-0002--
0--1---110
01--1-3---

Generation = 4, Population = 29.
-0----0---
---0------
-01-------
-0------1-
-21-----2-
------0---
32---22---
-1--11131-
----000--1
-20-----00

Generation = 5, Population = 49.
0-00-0-0--
----0-0---
0-2-----0-
0-0----020
0-22--0030
0-0---100-
4-1---3-2-
-200----2-
--01-1--12
031010321-

Generation = 6, Population = 44.
--110-0-0-
-----0--0-
1-300-0-1-
----------
--3310----
-----1211-
52---240-0
-3--1113--
011202--23
1-21-1----

Generation = 7, Population = 53.
-02-10--10
0---0-00-0
--4-10--20
0----00-2-
-24----03-
0000-2322-
6-1--3-12-
0-----2---
-22313--34
23--123-10

Generation = 8, Population = 36.
-13--1--2-
---0--11--
-0----0---
------10--
0-----0-40
-1-1----30
-22-04---0
1--011---0
0---2-01--
3----34---

Generation = 9, Population = 43.
024-1----0
----0--2--
1-40-0-0--
00---021-0
---3-010--
-20--232-1
--3---4---
2--1---321
-2--3--234
43---4----

Generation = 10, Population = 50.
1-5-21-02-
-0--1-1300
2051110-20
-1--0132--
0----1-14-
03--0-----
6-4---512-
--------3-
032---0-4-
5-2---4210

*** Life<FredkinCell> 10x10 ***

Generation = 0, Population = 7.
------0---
----------
-0--------
----------
-0--------
---0------
---------0
--------0-
----------
-----0----

Generation = 1, Population = 19.
-----0-0--
-0----0---
0-0-------
----------
0-00------
-00-0----0
---0------
-------0--
-----0--0-
----0-0---

Generation = 2, Population = 25.
-0--0-0-0-
----------
-0-0--0---
---0------
-0-1-----0
-1---0--0-
-0-----0-0
---0-00---
---------0
---0-0-00-

Generation = 3, Population = 41.
0-00-----0
---00---0-
0--100-0--
--0-0-0--0
01-200----
0-000-0--0
0100----0-
-00--11---
------00--
--0----11-

Generation = 4, Population = 23.
--1-------
---1------
-0---10--0
--------0-
-2---10---
-----0-0--
-2---0-0--
----02--0-
-0--------
-0-0----20

Generation = 5, Population = 43.
-0--------
-0--000--0
0-010210--
-------0--
0-0-0-1-0-
----0-010-
0-0----1--
---01-1--0
010000---0
01--0--131

Generation = 6, Population = 44.
011-000--0
-1---1--0-
-01-132-00
---0-001--
----1-2-10
---01--2-0
------02-0
-00--2--01
-2-1-1-0--
----1-02--

Generation = 7, Population = 57.
122-1110--
--0-0-0010
0-212--0-1
-0-----20-
---2213-2-
--01-0030-
-2000-1-0-
0-1-13-01-
030-0201-0
-1---01-3-

Generation = 8, Population = 26.
2-----2--0
---1-1----
-0---3---2
-----0----
-2---2---0
---2----10
-3-1--2--0
1--02-----
-4----1---
-2-----2--

Generation = 9, Population = 48.
-2-0---00-
010--2----
0-212-2-0-
----0-0---
0-02233--1
--03100321
-----0-2-1
-01-33---1
-50102----
030-----3-

Generation = 10, Population = 56.
-32-112110
-2-1---0--
10---33--2
---0-0-200
---3-44--2
01-42-14-2
-3-10-230-
1--0-41012
-6--1-1-00
14--10-2-1

*** Life<FredkinCell> 10x10 ***

Generation = 0, Population = 5.
-----0----
----------
----------
0---------
----------
-00-------
----0-----
----------
----------
----------

Generation = 1, Population = 18.
----0-0---
-----0----
0---------
-0--------
000-------
01100-----
-000-0----
----0-----
----------
----------

Generation = 2, Population = 15.
---0-0-0--
0---------
-----0----
01--------
----0-----
---11-----
--1---0---
-00-------
----0-----
----------

Generation = 3, Population = 35.
0-0-----0-
-0-0---0--
-0--0-0---
120-00----
00--10----
---2-00---
--2-00-0--
01-00-0---
-000-0----
----0-----

Generation = 4, Population = 18.
-0-------0
-10-------
----10----
--1-1-----
-----1----
01---11---
0-------0-
1---------
----------
-00-------

Generation = 5, Population = 40.
01------0-
0-1000---0
-0-0-10---
-2--20----
000--2----
-21-1-200-
-----000-0
21------0-
000-------
0110------

Generation = 6, Population = 37.
-2-000-0--
1-21------
-101-210-0
----31----
1--013-00-
-------11-
0-2--11---
-----00---
1-------0-
-2210-----

Generation = 7, Population = 44.
--0--1--0-
---2--0--0
-21-1--1--
1210-2--00
-0012----0
--121----0
---00---0-
--0-0--00-
--000000-0
-3--10--0-

Generation = 8, Population = 19.
-2--0--0--
-12-------
----------
2-----0-1-
----------
----21---1
--2-11--1-
-11-------
-----1----
0---------

Generation = 9, Population = 43.
03-0-10-0-
1-320--0--
021---1-0-
-2---2---0
1---230-00
--12--2---
--3---10--
22-00---0-
100-0-0---
-3---0----

Generation = 10, Population = 46.
-4010210-0
---31-0-0-
-3--1--1--
23---30-11
--0-34--1-
02-3----11
0-4011-1--
---1-0---0
--1011-00-
-4--------

*** Life<FredkinCell> 10x10 ***

Generation = 0, Population = 11.
--0-0-0---
----------
0-----0---
-0-0--0---
---0------
-------0--
----------
-----0----
----------
----------

Generation = 1, Population = 28.
-0-----0--
0-0-0-----
---0-010--
---10010--
-0010-00--
---0--0-0-
-----0-0--
----0-0---
-----0----
----------

Generation = 2, Population = 27.
----0-0-0-
-0-0--0---
0--1--2-0-
-0-211-10-
01---01---
-0-1--1--0
---0------
---0------
----------
-----0----

Generation = 3, Population = 39.
-0----1--0
---1-0-0--
-00---3010
01-----2-0
120-----00
-1-20-200-
-00-0-0--0
--010-----
---0-0----
----0-0---

Generation = 4, Population = 24.
0-00----0-
-------1--
--1---4---
-20----3--
--1-0-10--
---3-----0
0-----1---
---2--0--0
---1------
-----0-0--

Generation = 5, Population = 48.
--110----0
0--1------
--21-0-0--
03121-140-
--21--2-00
0------00-
-0---020--
0-0300100-
--020000-0
---00---0-

Generation = 6, Population = 42.
002210--0-
-00--0-1-0
---20-41--
1---21-5--
-----03-11
--03-02---
0--0--310-
-0-41---1-
00---11---
------0---

Generation = 7, Population = 48.
113---1---
---101020-
00-3--5210
-3-----6-0
1-21-1-022
011---3--0
---------0
01--2---20
1-02-2-00-
00----10--

Generation = 8, Population = 27.
2-4-1-2-0-
-------3--
1--4----2-
14---1----
2--2--3--3
----------
--0-0-3---
-2--------
--130-1---
-1-0--2---

Generation = 9, Population = 43.
-------0-0
--010---0-
2-2-00---0
251-2---00
3-2-0--02-
0-130----0
-------1--
0-04------
-0241-20--
0-01-030--

Generation = 10, Population = 42.
--421-2-0-
00-------0
30-4115-21
3-2-------
-2-2-131-3
1----0----
----0-3-00
-2----1---
11--22--0-
-1--014-0-

*** Life<FredkinCell> 10x10 ***

Generation = 0, Population = 9.
----------
0----0----
-----0----
-------0--
---------0
----------
----------
-0-----0--
--------0-
---0------

Generation = 1, Population = 29.
0----0----
-0--010---
0---0100--
-----00-00
-------00-
---------0
-0-----0--
0-0---0---
-0-0-----0
--0-0---0-

Generation = 2, Population = 21.
-----1----
0-00------
---0---1-0
0--------1
-----0-1-0
-0--------
--------00
-----0---0
------0---
---0-0-0--

Generation = 3, Population = 39.
0-000-0---
--1-01-0-0
---10-0--1
-0-0-0--0-
00--0----1
0-0--0-00-
-0---0-01-
----0----1
---0-0---0
--0---0-0-

Generation = 4, Population = 28.
-----1---0
002-12---1
-0-------2
-1-1---0-1
-----0-10-
1--0-1----
-----1----
-0---0-0-2
----0----1
-0--------

Generation = 5, Population = 55.
000--20-01
113-2-0-0-
---101-10-
02--000102
00--01--1-
-00---000-
00-00-00-0
0-0--1---3
---0---002
0-0-0----0

Generation = 6, Population = 40.
-1-0-3---2
-2-03-10--
---2----1-
--0-1--2-3
-1-0--01--
111----1--
---111--11
10-0------
--0--001-3
---0-0-0-1

Generation = 7, Population = 55.
02-10--00-
13-14221-1
-0-30-01--
-----0-30-
-2---11211
222001-2-0
-----20-22
2101--000-
0--00----4
-----101-2

Generation = 8, Population = 29.
--------1-
-4-2--320-
-1-----2-2
---1-1-4--
-3-0-2--2-
33---2-3--
----------
---------3
1---1----5
0--0-2-2-3

Generation = 9, Population = 49.
-2-1--0-22
15--4243--
020--1--1-
--02-2-5-3
-4-1--12-1
4-2003----
00---2-0-2
2---0---04
20-----10-
100-0----4

Generation = 10, Population = 45.
-3----1033
-6--535401
-3-----2--
02---30604
-----22--2
5-31------
11-113--23
-1-1---0--
3-----02-5
-11--2-2--

*** Life<FredkinCell> 10x10 ***

Generation = 0, Population = 8.
----------
----000-0-
-0--------
--0-------
----------
-------0--
--------0-
----------
----------
----------

Generation = 1, Population = 20.
----000-0-
-0-01-1--0
0---000-0-
---0------
--0----0--
------0---
---------0
--------0-
----------
----------

Generation = 2, Population = 19.
-0--------
---12--00-
---0------
0----0000-
-0------0-
--0--0---0
------0---
-------0--
--------0-
----------

Generation = 3, Population = 31.
0-000--00-
-00-301110
0-01-00---
---001---0
------0-1-
---00-----
--0------0
----------
---------0
--------0-

Generation = 4, Population = 25.
-0--------
011--12221
-0---1--0-
0-----0---
----------
---1100-00
-0--0---0-
--0-------
----------
-------0--

Generation = 5, Population = 44.
-1---00000
1-213---32
01--020-1-
-------00-
0--000--10
-0022-1--1
0---1-001-
---00---0-
--0----0--
------0-0-

Generation = 6, Population = 40.
---0-1--1-
2-3--1--4-
-2----10--
-0-0---11-
----11----
01-3302-02
--00------
0--1-00010
-0--0---0-
--0--0-0-0

Generation = 7, Population = 47.
0----20020
-1--32--52
-3-1--2-1-
01---1--20
0--0---0-0
120-413-13
--11---0--
---201--21
-----00010
---0----0-

Generation = 8, Population = 23.
--------3-
-23-4-2-6-
-----2---0
--0-0-----
-0--------
----5-4-2-
0---1---1-
-------0--
----------
--0-000-1-

Generation = 9, Population = 44.
-10-0-0040
234--2--7-
-3--0-----
---------0
0-----0-1-
12-36---33
-0-1200-20
0---0-0---
--0-00001-
-0--1-1--0

Generation = 10, Population = 36.
-----21-51
3--14---8-
-4-1----10
01--0-0---
1--011--20
-------04-
01--------
--0------1
0---1---2-
0--0202---

*** Life<FredkinCell> 10x10 ***

Generation = 0, Population = 14.
---0--00--
----------
--0-------
----------
--------00
--0-0-----
----------
----0-0--0
---0------
--0-0-----

Generation = 1, Population = 35.
--0-00110-
--00--00--
-0-0------
--0-----00
--0-0--011
-0---0--00
--0---0--0
-------00-
----0-0--0
-0-0-0----

Generation = 2, Population = 38.
-0101-2210
----------
0--10-0000
--1-0-----
--1---01-2
0-0------1
---0----01
--0-0-0110
-0---0----
0---0----0

Generation = 3, Population = 43.
01--2-3--1
000-------
-0-2--1--1
002010--0-
00-00012-3
--1---00--
0-0---0--2
---0-01-2-
----0--00-
---0----0-

Generation = 4, Population = 32.
---0---21-
--1-0-----
0--3---0--
----2-0--0
----112-1-
--2-0-1-0-
--1-------
0---01-13-
---0---110
--0-----10

Generation = 5, Population = 43.
------3321
00---0--0-
-0--0---01
0---301---
--102-3-2-
-03-102-11
0020-000--
-00-12----
0----00---
-0--------

Generation = 6, Population = 48.
01----4-32
1-1------0
01031010-2
--2-4--0-0
0---3---3-
--4--130-2
1--1-111-2
0--02311--
-00---11--
--0--00---

Generation = 7, Population = 44.
-2---0--4-
--2-00-0--
----2-----
--30---101
-0-04-32-3
-0----4-13
20-202-2-3
1----4-230
-1--002-1-
--1001----

Generation = 8, Population = 32.
0----14--2
----------
----3---02
--4-4-----
011-5-----
--4---5-24
---3--13--
20-02-1-4-
------312-
--2-1---1-

Generation = 9, Population = 63.
-2--22534-
1---000-0-
--0340-013
0-5--0--01
1-2-613-33
0-5-116035
20-4-22403
31--3---50
0100-0--30
-0---10-20

Generation = 10, Population = 46.
--10-36--2
--2-1-----
-1--5111--
1---4---12
-------244
-060---1-6
3-2---35-4
42-0-41-61
---101-141
-1-01-1---

*** Life<FredkinCell> 10x10 ***

Generation = 0, Population = 9.
----------
----------
-------0--
----------
----------
---0------
0-0-------
-------0-0
--------0-
----0---0-

Generation = 1, Population = 20.
----------
-------0--
------0-0-
-------0--
---0------
0---0-----
-------0-0
0-0---0-0-
----0---1-
---0-0-010

Generation = 2, Population = 27.
-------0--
----------
-----0---0
---0------
0-0----0--
-0---0-0-0
--0-0---0-
---000-01-
0-0---0---
--0-0--121

Generation = 3, Population = 45.
------0-0-
-----0-0-0
---00-0-0-
0---00-0-0
-0---00100
--0----10-
---010-01-
0-011101-0
--1----0-0
001--0-2-2

Generation = 4, Population = 29.
-------0--
---0------
0-01-----0
-------1-1
--------1-
----0--21-
0-0-2-01--
---222-211
----0-----
1--00--3-3

Generation = 5, Population = 47.
---0--0-0-
0--10--0-0
--1-0--001
0-00--0-02
----0--12-
0-0010---0
---0-01210
0--3-30--2
0--0----1-
-011-00---

Generation = 6, Population = 45.
0-01-0-0--
-0---0-1-1
-02-10--12
---100--1-
---01--2-0
--112---11
----212--1
100-----13
1---0--0--
-1---1132-

Generation = 7, Population = 55.
-012-1-100
-101---202
0-31-10---
-0----0-22
---12-0--1
-0223-0-22
00----321-
--13-30-2-
2010---110
--1--2-433

Generation = 8, Population = 26.
0-2-----1-
---20---1-
-----2----
----0---3-
-------22-
---3---2--
1-0-2-4-2-
-0---4----
3---0-----
1-2-0---4-

Generation = 9, Population = 41.
----0--120
0--31--222
---11-0---
---1----42
---12-0--1
0------32-
-0-0-1-2-1
1---2---2-
4-101---1-
2---12-4-3

Generation = 10, Population = 42.
0---110-3-
-10-20--3-
0-32------
--0-0--15-
0-0-3---22
----30--32
1---2--3--
2-133---3-
--2-2---2-
312--3--4-

*** Life<FredkinCell> 10x10 ***

Generation = 0, Population = 13.
-00-------
---0------
-------0--
0---0-----
----0----0
--0----0--
-0--------
----------
-------0--
--------0-

Generation = 1, Population = 35.
011-------
-0--0--0--
0--00-0-0-
-0-010-0-0
0-0010-00-
---00-0-00
0------0--
-0-----0--
------0---
---------0

Generation = 2, Population = 37.
12200--0--
01--10----
-00-10----
0-01--01--
-01---0--0
-----0---1
---00--1-0
--0----10-
-0---0---0
------0-0-

Generation = 3, Population = 41.
-3----0-0-
-20-2-00--
0--0---0--
--12---200
-1----1-01
-000---00-
---11-0201
----000-10
0---0--00-
-0--------

Generation = 4, Population = 38.
14--0010-0
--10------
--01-----0
0-2-1---1-
021--0--1-
0-----0-11
-0---0-3--
0---1---2-
---01--1--
--0-0--00-

Generation = 5, Population = 47.
25--1--1--
0----000--
001-------
10-2---22-
1--0---0--
100--0-0-2
0-0---0-01
----2--1-0
0--120020-
-0-0100-10

Generation = 6, Population = 55.
-620---20-
-21--1--0-
112--00-0-
2-231-0-30
-2-1101--1
2---0-0113
10111---12
--0-3-02-1
--0--113-0
----21-0-1

Generation = 7, Population = 50.
2-311013-0
-32-22---0
-23-------
3--4------
1-1---2-1-
3000-0--24
--2-20-3-3
0--040--2-
-0112-24--
--003-01-2

Generation = 8, Population = 36.
-6--21-4-1
--30---001
----10---0
4-2-1-0-3-
-221----2-
---101----
--3--1---4
--0----2--
-12-31---0
---1------

Generation = 9, Population = 56.
2---32-502
--412-0--2
1----1-001
-03420--4-
-33-102031
-00---0-24
-04--2031-
---04-0-2-
02-142240-
-0---1---2

Generation = 10, Population = 46.
-63--316--
-35----00-
----12011-
--4-31-2-0
1441-13---
311101--3-
1----3--2-
0--------1
1---533---
-101-2-1--

*** Life<FredkinCell> 10x10 ***

Generation = 0, Population = 14.
---0------
----------
0-0-------
-0--------
----------
0-----0---
----------
00-0---0-0
--0-----0-
--------0-

Generation = 1, Population = 30.
--0-0-----
0-00------
-0-0------
----------
00----0---
-0---0-0--
-0-0--00-0
110-0-0-0-
0-------1-
--0----010

Generation = 2, Population = 38.
0010-0----
-0--------
--010-----
0--0--0---
1-0-------
--000--100
--0-----0-
-210--101-
1---0-0---
00-0--0121

Generation = 3, Population = 55.
11-1--0---
-10-00----
0-12100---
1001-0-0--
2-100-0000
001-100211
---00-00--
-321-0---0
2000---0-0
-1---0---2

Generation = 4, Population = 38.
2-1----0--
0-----0---
1-232-1---
2--2-1-1-0
--21----1-
----2---2-
0-0-------
--320---11
3-1-0-0---
-2-00-0123

Generation = 5, Population = 45.
3--1----0-
-1-0001---
--34302--0
300-0-0-0-
203--0--2-
0----0-231
--1------0
-34--01022
-02---1---
--01-----4

Generation = 6, Population = 53.
--12-000-0
--0111-000
10-5-130--
-1121-1-1-
31-1-1----
1---21-34-
0-20--0-0-
1-52012---
3-3---2-1-
---20-0-2-

Generation = 7, Population = 48.
-1--0---01
0----2-1--
2-----4-00
32--2-21-0
--32-2-0--
--103-04-1
----001010
--63--30--
4-40----20
0--31-1-34

Generation = 8, Population = 30.
--12----12
1-----1-0-
----3-5-1-
-3---1--11
3-------2-
-0-1---542
---0------
13------2-
5--1------
12--2-----

Generation = 9, Population = 49.
31230-00-3
-101122---
20-5-16---
--1----122
-1-2-2---0
---23-0653
0-210--0-0
-46----0-2
-04-----2-
-30--0----

Generation = 10, Population = 54.
4234-0-1--
121-233--0
3--63---10
33-2---2--
3-330---2-
10-3-117-4
-0-2-0--1-
--7-0-3123
5151-0----
1--32-1-3-

*** Life<FredkinCell> 10x10 ***

Generation = 0, Population = 13.
-0--------
--------0-
----------
------0---
-0--0-0--0
--------00
-------0--
-0--------
---0------
0---------

Generation = 1, Population = 37.
0-0-----0-
-0-----0-0
------0-0-
-0--0010-0
0-00--10-1
-0--0-0-1-
-0----0--0
0-00---0--
000-0-----
-0-0------

Generation = 2, Population = 31.
-0-0------
----------
----0-1--0
----1---01
--110-2-02
-1-----0-0
-1-0001---
1--1----00
-1---0-0--
-10-------

Generation = 3, Population = 42.
0---0-----
-0-00-0--0
---01--0-1
--0--0-0-2
--2----0-3
02---00-11
-2----2-0-
-002--0-11
-2-00----0
0-10-0-0--

Generation = 4, Population = 37.
----100--0
----1---01
-0-----1--
-01-------
0-31---10-
1---01-0--
---0-----0
11---01---
-3-11-00-1
-12-0---00

Generation = 5, Population = 51.
---0--10-1
-0-02-0-1-
01--1-1--1
--------0-
10-2-02-13
220012-1-1
-20---200-
2-0--1----
--02-0-102
0-30100-1-

Generation = 6, Population = 53.
-001-0-10-
-1-----0-1
1-0-2-210-
---010-012
--330-31--
--11---2-2
0-1-00311-
-1--02---1
-31-1-0213
---1-1102-

Generation = 7, Population = 56.
0--2----1-
-20020----
-1-0303--1
0-1--1-123
-0---042--
222-120-1-
-220-1-220
-2021-1-12
0-222--32-
-1--1221--

Generation = 8, Population = 30.
---3-0-1-1
----3---11
-2--4-4--2
----------
113--15-13
3--12---2-
-3---2-3--
-----2--2-
---33-0---
----------

Generation = 9, Population = 48.
--0-1---12
-2--4-0-22
1-005--1-3
0-1-11--2-
--4--26--4
42-2320-3-
--20-3--2-
-2-2-3---2
--2440-32-
---11-2---

Generation = 10, Population = 41.
----2011--
--0----0-3
22--6----4
1--0-----3
--5-03-21-
53------4-
03310--33-
2---1-102-
--3-5-043-
-----2--2-

*** Life<FredkinCell> 10x10 ***

Generation = 0, Population = 13.
-----0----
-0--------
----0-----
---00---0-
0--------0
----------
----------
--0-------
0---------
00------0-

Generation = 1, Population = 32.
-0--0-0---
0-0-00----
-0--10--0-
0-01-0-0--
-0-00-----
0--------0
--0-------
00-0------
1-0-----0-
-10----0-0

Generation = 2, Population = 32.
---010-0--
----1---0-
0-0--10--0
--1--1----
0-0-1--0-0
--000---0-
---------0
-1--0---0-
2-1-------
-2-0--0-0-

Generation = 3, Population = 38.
--0121----
0-0-200---
--10--10--
-0-1-2-0--
---02-0-0-
00---0---0
-000----0-
---0-0-0--
----0-0---
--0-00---0

Generation = 4, Population = 28.
00--3-----
-----1----
0----1--0-
0-1-0--1--
0-0-3--0--
1-------0-
----0-----
-1-10-0---
--1-1----0
-2---1--0-

Generation = 5, Population = 46.
1101------
-0---20-0-
101--21--0
--2-1-02--
--1-4001--
200------0
00--100-0-
0-021--0-0
-0-02-0---
0-----00--

Generation = 6, Population = 48.
22-2310-0-
0-002-----
21-0--2---
0---2-1-00
0-----1-00
-1-0---0--
1-0---10-0
1-132-0-0-
2-1---10-0
---001-10-

Generation = 7, Population = 46.
-30-4-1--0
--1-----0-
3211123000
----------
1--04021--
2-0-0-01--
201010--0-
--2-3----0
3-20------
0--1-20-1-

Generation = 8, Population = 37.
24-----0--
00---2--10
4-2-----11
-02-----00
20-15-3-0-
-11-------
-----1----
----4-----
4----01-00
12-2-31--0

Generation = 9, Population = 44.
--0--11--0
1---2-0---
5-31-2-022
0---2-121-
31-26---1-
--2-000-0-
-01---1---
1--3-00-00
5--0----1-
-3-----1-1

Generation = 10, Population = 53.
24-2-2-00-
20----1-1-
--42----33
--2132232-
-2137----0
2130----10
-1--11-0-0
2--4-1---1
6-21201-20
--02--1-1-

*** Life<FredkinCell> 10x10 ***

Generation = 0, Population = 14.
------0---
--0-------
0-0----0--
-0-----0-0
-------0--
----------
----------
---------0
----------
0-0-0---0-

Generation = 1, Population = 33.
--0--0-0--
0010--00--
-010--0100
------0---
-0----0100
-------0--
---------0
--------0-
0-0-0---00
-----0-0-0

Generation = 2, Population = 39.
0-1-0-010-
11--0--1-0
--2-0012-1
--00-0-0--
0-0--0-2-1
-0-----1--
-------0--
0-0-0--010
----------
0-0-----01

Generation = 3, Population = 48.
10--1-121-
-210--0-01
0-30-1-3-2
00110-0-0-
-01-01----
-----00-00
000-0-0--0
-----00--1
----0--0--
---0---012

Generation = 4, Population = 32.
2---------
1-2---1---
1-410----3
-1-2---0--
---0--0--1
0---0---1-
1-1----0--
000-01--12
-------1--
--0---0--3

Generation = 5, Population = 50.
301---1---
--3-00-1-1
20-211130-
--1-----0-
0011-1----
100--00---
-020-00-00
----120023
00--00----
-0-0-0--1-

Generation = 6, Population = 54.
4--01----0
-240---20-
31-322-4--
-1220-0-10
-1-2-2--0-
--1001-110
--310110--
0-0---1-3-
1-0--1-1-0
-1--0100-3

Generation = 7, Population = 55.
----20-2--
1--1001-1-
42-4331503
-2-----0-1
02---3---1
----120-21
1042122-00
1---122---
2010-2-201
---012---4

Generation = 8, Population = 32.
4-----1---
2-4-----2-
----44261-
0-220--11-
1-1--4-2--
--1------2
------3---
-0-0------
------03--
01----00-5

Generation = 9, Population = 48.
501--0-21-
3--100--31
-------723
1----0-2-1
2------3-1
1020-2012-
-042-2-0-0
1---1--0--
2--0-2--01
120--2----

Generation = 10, Population = 48.
--2--1-3--
4--2--124-
---44-2-34
22--0---1-
--12----02
-13-----32
1-5-133-0-
2-00-221--
----030-12
--1-130-15

*** Life<FredkinCell> 10x10 ***

Generation = 0, Population = 9.
-0--------
----------
0---------
----------
-------0--
--0-------
--------0-
----------
---0---0--
---0-----0

Generation = 1, Population = 31.
0-0-------
00--------
-0--------
0------0--
--0---0-0-
-0-0---00-
--0----0-0
---0---00-
--010-0-00
--010--00-

Generation = 2, Population = 26.
10-0------
----------
010----0--
--0-------
0----0--10
0---0-----
---0--0---
--01-----0
-0------11
-0-2-0-1--

Generation = 3, Population = 44.
21--0-----
--00---0--
1--0--0-0-
--10-0-000
100---0021
10----0-00
0--1-0-0-0
--1-0-0--1
01---0--2-
01-------0

Generation = 4, Population = 25.
32---0-0--
--1-------
-10-0---1-
----------
-1-----1-2
2--0--1--1
1---0---0-
---1-----2
-------0-1
--0--0----

Generation = 5, Population = 51.
43--0---0-
002000-00-
12---0-0-0
--1-0--000
--00-----3
3-0--0---2
20-1-000-0
0-1----0-3
--01-00--2
-1-20-01-0

Generation = 6, Population = 48.
----1---10
1---1-----
--0001---1
0-20--0--1
1111-0-1--
401001-00-
31--------
1021--01--
0---01-02-
0-0-10-2-1

Generation = 7, Population = 53.
4--020-021
-02-----0-
-2-112--12
1031-0--02
22-20102-3
5-21----12
420-000-0-
21-2--1---
------013-
1------30-

Generation = 8, Population = 30.
---1-1-132
--30-----0
------002-
---2-----3
3--3-2-3--
----0-----
53--1---1-
--2-------
-1-1-1-2-2
-1-------1

Generation = 9, Population = 56.
---2---2--
-04-100-01
--0--21-32
1-33000---
-2140---23
-0--1--01-
64-120-0-0
21--00-103
020------3
1202-0-302

Generation = 10, Population = 40.
-3---1---2
11-021-0--
1---132---
-04411-0--
--251-0--4
---1--1--2
-5-2-----1
32-------4
1---0---3-
-313---4--

*** Life<FredkinCell> 10x10 ***

Generation = 0, Population = 15.
0---0---0-
---------0
-0----0---
---0------
----------
--0--0----
----------
0---0-0---
-----0----
--0-0-----

Generation = 1, Population = 38.
-0-0-0-0--
00--0-0---
0-00-0-0-0
-00-0-0---
--00-0----
-0-00-0---
0-0-000---
-0-0-0-0--
0-0-0-----
-0--------

Generation = 2, Population = 24.
-1--0-0-0-
---0---0-0
1--1------
-11------0
-0----0---
------10--
-----1----
0----10-0-
---0---0--
----0-----

Generation = 3, Population = 39.
0-0----0--
0001----0-
---20--0--
--2---0-0-
01---01--0
-0-----10-
0---02000-
-0-00-10-0
0-0--0----
-----0-0--

Generation = 4, Population = 40.
111---0---
--1----0-0
100-10--0-
0---0-10--
1---01--0-
010-0-1---
-0----1---
0-01----0-
-0---1---0
0-0-01--0-

Generation = 5, Population = 54.
2--0-0---0
-0-100--0-
-----1-0--
--20--210-
--00121--0
-21-10210-
010002200-
--120110--
0-00-20-0-
-0--1-00--

Generation = 6, Population = 39.
--11010---
-----10---
-00--2010-
-1---0-21-
--1123200-
--2-2--2--
12-1-----0
--2-1---0-
-0----1--0
-----1-1--

Generation = 7, Population = 50.
-12--2-0--
-0-1-21-0-
1-121312-0
0220---320
----34---0
0-3-3--3-0
23--0--0--
00-2-110-0
0---0-----
-0--1-0-00

Generation = 8, Population = 39.
2-3-030---
-1-203----
2----42--1
--3-0----1
-1---52---
12----24-1
3---1---0-
1----2----
10--1--00-
--002---11

Generation = 9, Population = 42.
-1-1-410--
0-13141--0
--121-3202
0----0--22
-2---6----
--3-3--50-
---1--2---
----1-10--
-1--2-11--
0-1--1---2

Generation = 10, Population = 46.
--320-2100
-1--2520-1
-0-3----13
--30-1----
-----720-0
---0---611
----12300-
-0--2-2-0-
---032--00
-0-0---11-

*** Life<FredkinCell> 10x10 ***

Generation = 0, Population = 11.
----------
----------
-0-0-0----
----------
----------
-------0--
000-------
------0---
--------0-
---0-----0

Generation = 1, Population = 30.
----------
-0-0-0----
0-----0---
-0-0-0----
-------0--
000---0-0-
1-10--00--
000--0-00-
---0--00--
--0-0-----

Generation = 2, Population = 32.
-0-0-0----
----------
-0---0-0--
-------0--
0-00-0----
-----01--0
--210---0-
---00--110
000---1---
-0-0-000--

Generation = 3, Population = 52.
0-----0---
---0---0--
0-0-0--10-
0000--010-
--11-1-0-0
0-----20--
-032--0-10
000--0-221
11100-2000
-10--1110-

Generation = 4, Population = 24.
-0-0-0----
-------1--
101--0-2-0
------1---
--------0-
----------
1-430-1---
--10-----2
----1-----
-----222--

Generation = 5, Population = 46.
0-----00--
0-00--0200
2-200-03--
000-----00
------00-0
0-000-2-0-
---41--0-0
00--0-0-2-
--1---20-0
-----3-30-

Generation = 6, Population = 43.
1000-0---0
-----01--1
-0311---0-
----0--11-
-0-101-1-1
--11--3--0
-0--201---
11--1-1--2
1--01-----
--0-0-2-1-

Generation = 7, Population = 50.
2--1-1--01
0-----22-2
21----0-1-
--00--1---
0-1-120202
-02-004-01
-1----20--
--1--0222-
2--120--00
01-01----0

Generation = 8, Population = 34.
300-----1-
---0---3-3
-2-1-0-3--
---1-----0
-0-1-3--1-
-----15---
124-203-10
1-----33--
3---3-----
-2-------1

Generation = 9, Population = 44.
4-1-------
0--100240-
2------41-
--0-0--1--
0--2-4-2--
0-21-2-0-1
--5-314021
--1----4-2
4--1-020-0
--0-1---1-

Generation = 10, Population = 55.
5---01001-
-0-2---5-3
3231-0-5-0
-0-1--1---
101315--12
1---0-5-02
12-442---2
112-1-3-2-
-11-31--01
02-0--2---

*** Life<FredkinCell> 10x10 ***

Generation = 0, Population = 10.
-0--------
---0-0----
----------
--------0-
----0-----
----------
----------
-0--------
0----0----
---0---0--

Generation = 1, Population = 30.
0-00-0----
-00---0---
---0-0--0-
----0--0-0
---0-0--0-
----0-----
-0--------
--0--0----
---00-00--
0-0-000-0-

Generation = 2, Population = 27.
-0-1------
-1-0-0-00-
-0--0-----
---0-00---
--0---0---
-0------0-
0---00----
-------0--
0-01---1--
---0---0-0

Generation = 3, Population = 56.
01-200-00-
0--10--110
0100-0000-
-0--01-0--
------100-
----0000-0
---011000-
--0000010-
--1-0-0-00
0--10-01--

Generation = 4, Population = 31.
-2--11----
-1-2-0-2-1
-2--------
-1--1---0-
-0---0--1-
-----1-1--
----------
-0-1-1-21-
002--0---1
-0-2---2-0

Generation = 5, Population = 55.
030-2-00-0
0---01----
0-0000-000
0-00---010
010--11-20
-0--02----
-0-0----0-
-10--2-32-
1-31010--2
-10-000--1

Generation = 6, Population = 35.
--1-3111--
----1---1-
---11---1-
-11------1
-2----20--
----1----0
0-0-----10
---1-304--
--4-1----3
-2-2-1-202

Generation = 7, Population = 47.
-3-----2--
--0---0-21
-2-2-0-02-
0-2-1-00--
03--01312-
0000-201-1
----110-2-
0-0-04-5--
-----10--4
0-0-0--3--

Generation = 8, Population = 26.
0--------0
-1-------2
----1-----
1--02--11-
1-0--2--3-
-1-1-3----
-0--------
-----5---0
----1-110-
--------02

Generation = 9, Population = 45.
--------01
--0-1---23
02--20-020
21-1--02-1
23-0-33-40
-20--40-0-
0100-----0
-1-----5--
---1-12--4
----0-0--3

Generation = 10, Population = 47.
--1-3--2--
0---2---34
-----10-31
32-2-1----
-401--41--
03-11---11
1-111100--
-2---5--2-
-04-12--05
-----11304

*** Life<FredkinCell> 10x10 ***

Generation = 0, Population = 9.
--------0-
----0-----
----------
----------
----------
------0---
---0------
-----0----
0---0-----
------00--

Generation = 1, Population = 28.
----0--0-0
---0-0--0-
----0-----
----------
------0---
---0-0-0--
--0-000---
0--0--0---
-0-0--00--
0---00110-

Generation = 2, Population = 24.
------0-0-
--0---0---
--------0-
----0-0---
---0------
----01--0-
00--11----
---1------
0--1--1---
----1-2210

Generation = 3, Population = 44.
--0--01--0
-0-0-010--
--0-0--0-0
-------00-
--0-000-0-
00----00-0
110---0-0-
-002-00---
-002-02-00
0--------1

Generation = 4, Population = 28.
----0---0-
0---0-2-0-
---0----0-
-----0----
0---1---1-
--0-0-11--
-------0--
-1----10-0
--1-----1-
--00-02--2

Generation = 5, Population = 49.
0--0101010
-0--1----0
0-0--00010
0--0--0---
-0002-0--0
00--1-2---
-10-1-0-00
0----02-0-
--2--0---0
-0-1-132--

Generation = 6, Population = 40.
--012-----
0---20--0-
10---11---
1-01----0-
0--1---01-
110----10-
1-1-21---1
--------10
0---0-20--
0-0----312

Generation = 7, Population = 53.
001-----1-
1-0----0-0
21-0--20--
-01-000-10
--022-0-20
2---112---
212-320002
--0--02-2-
1022--3-1-
1--11----3

Generation = 8, Population = 24.
---1------
--1----10-
----------
------10--
0---3-----
3---223---
--------13
-1----30--
--3---4-2-
2---213---

Generation = 9, Population = 51.
----2--01-
-0----2210
--0---2-1-
1---00211-
10-24--0--
41-0--4100
21--32--24
0----0-120
1--20--0-0
-0013--31-

Generation = 10, Population = 46.
-0-1-0----
1---20-3-1
2--00-----
2-1---32-0
2-----0-20
52-12-521-
3-2-4--035
---201--31
2-----4--1
-1-2-13-2-
