24

39 29
13
17 27
28 9
7 16
27 16
33 18
8 6
10 18
14 2
7 14
14 2
38 19
29 22
2 15
217 28

29 13
15
7 6
27 10
26 11
12 1
28 12
15 11
15 2
2 2
6 4
26 7
9 8
22 11
6 10
23 4
20 6
173 94

11 45
19
10 42
1 31
5 34
9 33
6 17
1 4
5 16
0 14
7 0
8 17
10 11
9 22
9 30
4 17
5 17
3 34
2 35
3 28
4 25
37 55

29 18
20
13 5
28 9
19 8
11 4
20 16
23 13
4 11
16 0
4 17
18 10
2 8
15 3
20 9
16 9
23 3
26 6
16 12
7 8
3 9
6 14
239 66

19 50
14
0 28
5 17
11 44
18 29
16 28
13 8
17 39
16 45
15 23
5 36
6 28
13 12
15 0
10 38
160 149

33 40
15
7 23
3 26
3 9
11 23
25 1
12 12
30 32
14 17
12 23
12 26
14 26
0 34
22 4
14 13
30 29
192 198

32 13
16
0 3
26 1
14 6
20 6
6 4
10 5
27 5
1 8
17 10
22 1
14 0
14 9
0 2
27 0
8 11
5 12
223 93

25 25
17
17 1
11 19
23 16
7 5
21 8
14 17
3 14
18 19
14 22
5 0
5 2
24 7
22 0
4 6
7 11
17 3
21 23
370 101

34 24
14
33 7
14 6
19 20
18 6
13 19
1 9
0 8
13 2
17 4
12 2
13 8
11 3
2 3
13 4
371 69

41 26
14
34 24
15 11
15 11
27 4
11 4
21 24
40 18
17 6
10 18
12 3
4 7
25 4
11 8
18 10
335 52

15 45
16
3 17
9 42
7 18
12 33
2 17
12 43
14 36
5 21
8 27
4 24
3 42
7 20
6 15
7 37
11 17
5 18
94 8

17 11
19
14 10
9 6
1 9
16 6
3 0
5 2
1 5
6 4
9 1
9 2
0 9
2 7
6 0
6 5
11 1
0 9
14 8
1 6
8 2
345 69

39 26
13
36 2
6 20
22 25
24 9
18 9
10 3
0 24
10 18
5 19
31 19
10 6
29 11
20 18
165 11

13 32
18
0 12
11 23
7 19
6 7
12 15
10 27
0 17
4 24
2 21
6 25
4 20
2 24
2 23
2 27
11 31
9 12
6 10
4 12
42 175

12 47
11
6 39
2 30
1 13
6 25
5 4
9 27
7 24
8 5
4 30
2 45
0 41
395 40

10 33
20
4 24
9 6
5 3
4 32
1 15
4 30
4 19
5 5
4 3
6 21
2 3
3 25
9 7
0 12
3 1
0 6
9 27
4 32
7 7
7 3
77 118

32 13
15
10 4
26 7
30 9
7 12
9 3
3 3
31 10
16 6
9 2
17 8
22 10
16 5
12 5
21 2
22 12
21 174

18 42
16
0 28
10 37
13 29
5 12
6 28
1 20
15 15
4 33
17 20
12 23
3 13
15 31
3 21
12 22
1 35
6 5
384 58

18 17
16
2 12
9 6
16 15
12 0
5 16
4 13
3 8
13 3
10 9
5 14
3 15
7 10
8 16
0 13
10 2
12 3
72 195

18 12
16
8 11
7 0
10 9
5 0
17 10
0 11
5 10
16 10
16 2
0 4
14 9
4 9
15 10
4 9
1 4
10 6
174 130

11 27
12
1 0
10 20
0 5
0 7
5 19
3 18
4 21
5 22
4 18
2 2
9 5
2 7
204 21

35 10
16
13 5
7 5
17 7
30 9
7 2
7 5
27 3
9 1
18 7
21 1
17 0
33 8
21 1
29 5
29 1
4 4
188 42

33 10
18
6 7
25 3
21 3
26 9
19 9
28 8
15 0
11 6
29 2
18 0
24 0
11 9
25 5
17 9
9 0
28 6
28 4
27 3
170 159

41 16
17
11 11
38 0
33 4
24 15
32 1
26 4
32 0
29 14
9 0
14 7
39 3
22 6
38 11
29 15
35 1
9 13
15 9
196 67
